{
    "$schema": "http://json-schema.org/schema",
    "id": "processComponent",
    "title": "Convert AngularJs component to Angular component",
    "type": "object",
    "properties": {
        "path": {
            "type": "string",
            "format": "path",
            "description": "The path to the component file.",
            "x-prompt": "What is the file path to component file?",
            "visible": false
        }
    },
    "additionalProperties": false
}